INDEX VERSION 1.130+C:\1.Module3\FSD\assignments\AdvJava\StudWebAppWorksapce\.metadata\.plugins\org.eclipse.jdt.core
2764206633.index
4140952094.index
1093726960.index
4259073463.index
3368893005.index
955172766.index
2157904750.index
3792470066.index
2885606711.index
1999030686.index
542153213.index
4138326577.index
3597646469.index
1198677868.index
3337630133.index
3040837599.index
2719135320.index
3006274476.index
2118989581.index
763774850.index
2297113789.index
674573568.index
2066830214.index
4135958314.index
1961815414.index
1173748865.index
3644761064.index
1124024629.index
3632568344.index
2205283528.index
3436495312.index
895354549.index
1956904976.index
3348520720.index
3397306214.index
525305805.index
1466168886.index
103378668.index
3337265462.index
3136144189.index
411227453.index
2097441451.index
603004479.index
2383456882.index
1048865750.index
2507423472.index
2075269535.index
1946725198.index
1508518470.index
