127.0.0.1 - - [13/Feb/2024:09:32:27 +0530] "GET / HTTP/1.1" 404 751
127.0.0.1 - - [13/Feb/2024:09:32:55 +0530] "GET / HTTP/1.1" 404 751
0:0:0:0:0:0:0:1 - - [13/Feb/2024:09:32:56 +0530] "GET /StudWebApp/Login.html HTTP/1.1" 304 -
0:0:0:0:0:0:0:1 - - [13/Feb/2024:09:33:14 +0530] "GET /StudWebApp/Register.html HTTP/1.1" 304 -
0:0:0:0:0:0:0:1 - - [13/Feb/2024:09:33:32 +0530] "GET /StudWebApp/LoginServlet?emailId=student&password=student HTTP/1.1" 200 189
0:0:0:0:0:0:0:1 - - [13/Feb/2024:09:33:38 +0530] "GET /StudWebApp/StudentHomePage HTTP/1.1" 200 186
